lab1/singh94-master/Lab 5/simulation/qsim/Lab5.msim.vcd
$comment
	File created using the following command:
		vcd file Lab5.msim.vcd -direction
$end
$date
	Thu Oct  1 01:11:21 2020
$end
$version
	ModelSim Version 10.3d
$end
$timescale
	1ps
$end

$scope module Lab5_vlg_vec_tst $end
$var reg 1 ! S0 $end
$var reg 1 " S1 $end
$var reg 1 # S2 $end
$var wire 1 $ A $end
$var wire 1 % P $end
$var wire 1 & sampler $end

$scope module i1 $end
$var wire 1 ' gnd $end
$var wire 1 ( vcc $end
$var wire 1 ) unknown $end
$var tri1 1 * devclrn $end
$var tri1 1 + devpor $end
$var tri1 1 , devoe $end
$var wire 1 - ~QUARTUS_CREATED_GND~I_combout $end
$var wire 1 . S0~input_o $end
$var wire 1 / S1~input_o $end
$var wire 1 0 S2~input_o $end
$var wire 1 1 Or1~0_combout $end
$var wire 1 2 Or2~0_combout $end
$upscope $end
$upscope $end
$enddefinitions $end
#0
$dumpvars
0!
0"
0#
1$
0%
x&
0'
1(
x)
1*
1+
1,
0-
0.
0/
00
01
02
$end
#10000
1!
1.
0&
11
0$
#20000
1"
0!
1/
0.
1&
01
12
1%
1$
#30000
1!
1.
0&
11
0$
#40000
1#
0"
0!
10
0/
0.
1&
01
02
0%
1$
#50000
1!
1.
0&
12
1%
#60000
1"
0!
1/
0.
1&
11
02
0%
0$
#70000
1!
1.
0&
12
1%
