lab1/singh94-master/Lab 5pt2/simulation/qsim/Lab5pt2.msim.vcd
$comment
	File created using the following command:
		vcd file Lab5pt2.msim.vcd -direction
$end
$date
	Fri Oct 16 21:46:39 2020
$end
$version
	ModelSim Version 10.3d
$end
$timescale
	1ps
$end

$scope module Lab5pt2_vlg_vec_tst $end
$var reg 1 ! CLK $end
$var reg 1 " CLRN $end
$var reg 1 # PRN $end
$var reg 1 $ T $end
$var wire 1 % A $end
$var wire 1 & P $end
$var wire 1 ' S0 $end
$var wire 1 ( S1 $end
$var wire 1 ) S2 $end
$var wire 1 * sampler $end

$scope module i1 $end
$var wire 1 + gnd $end
$var wire 1 , vcc $end
$var wire 1 - unknown $end
$var tri1 1 . devclrn $end
$var tri1 1 / devpor $end
$var tri1 1 0 devoe $end
$var wire 1 1 ~QUARTUS_CREATED_GND~I_combout $end
$var wire 1 2 CLRN~input_o $end
$var wire 1 3 PRN~input_o $end
$var wire 1 4 D0~1_combout $end
$var wire 1 5 CLK~input_o $end
$var wire 1 6 CLK~inputCLKENA0_outclk $end
$var wire 1 7 T~input_o $end
$var wire 1 8 D2~1_combout $end
$var wire 1 9 D0~0_combout $end
$var wire 1 : D2~_emulated_q $end
$var wire 1 ; D2~0_combout $end
$var wire 1 < Nand9~combout $end
$var wire 1 = D1~1_combout $end
$var wire 1 > D1~_emulated_q $end
$var wire 1 ? D1~0_combout $end
$var wire 1 @ Nand10~combout $end
$var wire 1 A D0~3_combout $end
$var wire 1 B D0~_emulated_q $end
$var wire 1 C D0~2_combout $end
$var wire 1 D Nand2~0_combout $end
$var wire 1 E Nand1~combout $end
$upscope $end
$upscope $end
$enddefinitions $end
#0
$dumpvars
0!
1"
0#
0$
0%
0&
1'
1(
1)
x*
0+
1,
x-
1.
1/
10
01
12
03
14
05
06
07
18
19
0:
1;
0<
1=
0>
1?
0@
1A
0B
1C
1D
0E
$end
#5000
1#
13
0*
09
#20000
1$
17
1*
08
#25000
1!
15
0*
16
1B
1>
0?
0C
0D
1<
0'
0(
1%
0=
#30000
0$
07
1*
18
#35000
0!
05
0*
06
#40000
1$
17
1*
08
#45000
1!
15
0*
16
0>
1?
1D
1(
0%
#50000
0$
07
1*
18
#55000
0!
05
0*
06
#60000
1$
17
1*
08
#65000
1!
15
0*
16
#70000
0$
07
1*
18
#75000
0!
05
0*
06
#85000
1!
15
1*
16
1:
0;
0D
0<
0)
1E
1&
1%
1=
#95000
0!
05
0*
06
#105000
1!
15
1*
16
1>
0?
1@
0(
0E
0&
0A
#115000
0!
05
0*
06
#125000
1!
15
1*
16
0B
1C
1D
1'
0%
#135000
0!
05
0*
06
#140000
1$
17
1*
08
#145000
1!
15
0*
16
0:
1;
0D
0@
1)
1E
1&
1%
1A
#150000
0$
07
1*
18
#155000
0!
05
0*
06
#165000
1!
15
1*
16
1B
1:
0;
0C
1@
0'
0)
0E
0&
0A
#175000
0!
05
0*
06
#180000
1$
17
1*
08
#185000
1!
15
0*
16
0B
0:
1;
1C
0@
1'
1)
1E
1&
1A
#190000
0$
07
1*
18
#195000
0!
05
0*
06
