lab1/singh94-master/Lab 3/simulation/qsim/lab3.msim.vcd
$comment
	File created using the following command:
		vcd file lab3.msim.vcd -direction
$end
$date
	Thu Sep 17 19:08:44 2020
$end
$version
	ModelSim Version 10.3d
$end
$timescale
	1ps
$end

$scope module lab3_vlg_vec_tst $end
$var reg 1 ! A $end
$var reg 1 " B $end
$var reg 1 # C $end
$var wire 1 $ Cout $end
$var wire 1 % S $end
$var wire 1 & sampler $end

$scope module i1 $end
$var wire 1 ' gnd $end
$var wire 1 ( vcc $end
$var wire 1 ) unknown $end
$var tri1 1 * devclrn $end
$var tri1 1 + devpor $end
$var tri1 1 , devoe $end
$var wire 1 - ~QUARTUS_CREATED_GND~I_combout $end
$var wire 1 . A~input_o $end
$var wire 1 / C~input_o $end
$var wire 1 0 B~input_o $end
$var wire 1 1 inst50~0_combout $end
$var wire 1 2 51~0_combout $end
$upscope $end
$upscope $end
$enddefinitions $end
#0
$dumpvars
0!
0"
0#
0$
0%
x&
0'
1(
x)
1*
1+
1,
0-
0.
0/
00
01
02
$end
#10000
1#
1/
0&
12
1%
#20000
1"
0#
10
0/
1&
#30000
1#
1/
0&
02
11
1$
0%
#40000
1!
0"
0#
1.
00
0/
1&
12
01
0$
1%
#50000
1#
1/
0&
02
11
1$
0%
#60000
1"
0#
10
0/
1&
#70000
1#
1/
0&
12
1%
